{
  "routes": [
    {
      "handle": "filesystem"
    },
    {
      "src": "/cv",
      "dest": "/curriculum-english.pdf"
    },
    {
      "src": "/cv.pdf",
      "dest": "/curriculum-english.pdf"
    },
    {
      "src": "/curriculum",
      "dest": "/curriculum-english.pdf"
    },
    {
      "src": "/hoja-de-vida",
      "dest": "/curriculum-english.pdf"
    },
    {
      "src": "/resume",
      "dest": "/curriculum-english.pdf"
    }
  ],
  "build": {
    "env": {
      "REACT_APP_EMAIL_SERVER": "https://personal-website-contact-me-server.now.sh/api/email",
      "REACT_APP_MY_EMAIL": "walter.devia@outlook.com",
      "REACT_APP_CONTENT_SERVER": "https://content-server.walterdl.now.sh/api",
      "REACT_APP_PROJECT_REPO": "https://github.com/walterdl/personal-website-front-end"
    }
  }
}
